{
  "swagger": "2.0",
  "info": {
    "description": "Restaurant Doucument.",
    "version": "1.0.0",
    "title": "Restaurant Saas API"
  },
  "host": "restaurantsass.herokuapp.com",
  "basePath": "/",
  "tags": [{
    "name": "pet",
    "description": "Everything about your Pets",
    "externalDocs": {
      "description": "Find out more",
      "url": "http://swagger.io"
    }
  }, {
    "name": "store",
    "description": "Access to Petstore orders"
  }, {
    "name": "user",
    "description": "Operations about user",
    "externalDocs": {
      "description": "Find out more about our store",
      "url": "http://swagger.io"
    }
  }],
  "schemes": ["https"],
  "paths": {
    
  "securityDefinitions": {
    "petstore_auth": {
      "type": "oauth2",
      "authorizationUrl": "http://petstore.swagger.io/oauth/dialog",
      "flow": "implicit",
      "scopes": {
        "write:pets": "modify pets in your account",
        "read:pets": "read your pets"
      }
    },
    "api_key": {
      "type": "apiKey",
      "name": "api_key",
      "in": "header"
    }
  },
},
  "definitions": {
     "password": {
       "type": "object",
      "properties": {
      "oldPassword":{
        "type":"string"
      },
      "newPassword":{
        "type":"string"
      }
    }
    },
    
    
    
    "ApiResponse": {
      "type": "object",
      "properties": {
        "code": {
          "type": "integer",
          "format": "int32"
        },
        "type": {
          "type": "string"
        },
        "message": {
          "type": "string"
        }
      }
    }
  },
  "externalDocs": {
    "description": "Find out more about Swagger",
    "url": "http://swagger.io"
  }
}
